Src/singlecycle.vcd
$date
	Mon Nov 25 13:37:01 2024
$end
$version
	Icarus Verilog
$end
$timescale
	1ps
$end
$scope module SingleCycleProcTest_v $end
$var wire 64 ! currentPC [63:0] $end
$var wire 64 " MemtoRegOut [63:0] $end
$var reg 1 # CLK $end
$var reg 1 $ Reset_L $end
$var reg 8 % passed [7:0] $end
$var reg 64 & startPC [63:0] $end
$var reg 16 ' watchdog [15:0] $end
$scope module uut $end
$var wire 1 # CLK $end
$var wire 1 $ resetl $end
$var wire 64 ( startpc [63:0] $end
$var wire 1 ) zero $end
$var wire 1 * uncond_branch $end
$var wire 3 + signop [2:0] $end
$var wire 5 , rn [4:0] $end
$var wire 5 - rm [4:0] $end
$var wire 1 . regwrite $end
$var wire 64 / regoutB [63:0] $end
$var wire 64 0 regoutA [63:0] $end
$var wire 1 1 reg2loc $end
$var wire 5 2 rd [4:0] $end
$var wire 11 3 opcode [10:0] $end
$var wire 64 4 nextpc [63:0] $end
$var wire 1 5 memwrite $end
$var wire 1 6 memread $end
$var wire 1 7 mem2reg $end
$var wire 32 8 instruction [31:0] $end
$var wire 64 9 extimm [63:0] $end
$var wire 1 : branch $end
$var wire 1 ; alusrc $end
$var wire 64 < aluout [63:0] $end
$var wire 4 = aluctrl [3:0] $end
$var wire 64 > aluBusB [63:0] $end
$var wire 64 ? ReadData [63:0] $end
$var wire 64 @ MemtoRegOut [63:0] $end
$var wire 26 A Imm26 [25:0] $end
$var reg 64 B currentpc [63:0] $end
$scope module ALU1 $end
$var wire 64 C BusB [63:0] $end
$var wire 1 ) Zero $end
$var wire 64 D BusW [63:0] $end
$var wire 64 E BusA [63:0] $end
$var wire 4 F ALUCtrl [3:0] $end
$var reg 64 G bus [63:0] $end
$upscope $end
$scope module DataMemory1 $end
$var wire 64 H Address [63:0] $end
$var wire 1 # Clock $end
$var wire 64 I WriteData [63:0] $end
$var wire 1 5 MemoryWrite $end
$var wire 1 6 MemoryRead $end
$var reg 64 J ReadData [63:0] $end
$scope task initset $end
$var reg 64 K addr [63:0] $end
$var reg 64 L data [63:0] $end
$upscope $end
$upscope $end
$scope module NextPClogic1 $end
$var wire 1 ) ALUZero $end
$var wire 64 M CurrentPC [63:0] $end
$var wire 64 N NextPC [63:0] $end
$var wire 1 * Uncondbranch $end
$var wire 64 O SignExtImm64 [63:0] $end
$var wire 1 : Branch $end
$var reg 64 P bus [63:0] $end
$upscope $end
$scope module RegisterFile1 $end
$var wire 64 Q BusW [63:0] $end
$var wire 1 # Clk $end
$var wire 5 R RA [4:0] $end
$var wire 5 S RB [4:0] $end
$var wire 5 T RW [4:0] $end
$var wire 1 . RegWr $end
$var wire 64 U BusB [63:0] $end
$var wire 64 V BusA [63:0] $end
$upscope $end
$scope module SignExtender1 $end
$var wire 26 W Imm26 [25:0] $end
$var wire 3 X Ctrl [2:0] $end
$var wire 64 Y BusImm [63:0] $end
$var reg 64 Z result [63:0] $end
$upscope $end
$scope module control $end
$var wire 11 [ opcode [10:0] $end
$var reg 4 \ aluop [3:0] $end
$var reg 1 ; alusrc $end
$var reg 1 : branch $end
$var reg 1 7 mem2reg $end
$var reg 1 6 memread $end
$var reg 1 5 memwrite $end
$var reg 1 1 reg2loc $end
$var reg 1 . regwrite $end
$var reg 3 ] signop [2:0] $end
$var reg 1 * uncond_branch $end
$upscope $end
$scope module imem $end
$var wire 64 ^ Address [63:0] $end
$var reg 32 _ Data [31:0] $end
$upscope $end
$upscope $end
$scope task allPassed $end
$var reg 8 ` numTests [7:0] $end
$var reg 8 a passed [7:0] $end
$upscope $end
$scope task passTest $end
$var reg 64 b actualOut [63:0] $end
$var reg 64 c expectedOut [63:0] $end
$var reg 8 d passed [7:0] $end
$var reg 257 e testType [256:0] $end
$upscope $end
$upscope $end
$enddefinitions $end
#0
$dumpvars
bx e
bx d
bx c
bx b
bx a
bx `
bx _
bx ^
bx ]
bx \
bx [
bx Z
bx Y
bx X
bx W
bx V
bx U
bx T
bx S
bx R
bx Q
bx P
bx O
bx N
bx M
b0 L
b100000 K
bx J
bx I
bx H
bx G
bx F
bx E
bx D
bx C
bx B
bx A
bx @
bx ?
bx >
bx =
bx <
x;
x:
bx 9
bx 8
x7
x6
x5
bx 4
bx 3
bx 2
x1
bx 0
bx /
x.
bx -
bx ,
bx +
x*
x)
b0 (
b0 '
b0 &
b0 %
1$
0#
bx "
bx !
$end
#60000
1#
#120000
b1 '
0#
#121000
0$
#180000
1#
#240000
b10 '
0#
#243000
b0 >
b0 C
b0 9
b0 O
b0 Y
b0 Z
b11 +
b11 X
b11 ]
b10 =
b10 F
b10 \
0*
0:
05
16
1.
17
1;
b0x00x ,
b0x00x S
b10000000000001111101001 A
b10000000000001111101001 W
b11111000010 3
b11111000010 [
b11111 -
b11111 R
b1001 2
b1001 T
b100 4
b100 N
b100 P
b11111000010000000000001111101001 8
b11111000010000000000001111101001 _
b0 !
b0 B
b0 M
b0 ^
#245000
1)
b0 <
b0 D
b0 G
b0 H
b0 0
b0 E
b0 V
#300000
b1 "
b1 @
b1 Q
b1 ?
b1 J
1$
1#
#360000
b11 '
0#
#363000
0)
b1000 <
b1000 D
b1000 G
b1000 H
b1000 >
b1000 C
b1000 9
b1000 O
b1000 Y
b1000 Z
b0x0x0 ,
b0x0x0 S
b10000001000001111101010 A
b10000001000001111101010 W
b1010 2
b1010 T
b1000 4
b1000 N
b1000 P
b11111000010000001000001111101010 8
b11111000010000001000001111101010 _
b100 !
b100 B
b100 M
b100 ^
#420000
b1010 "
b1010 @
b1010 Q
b1010 ?
b1010 J
1#
#480000
b100 '
0#
#483000
b10000 <
b10000 D
b10000 G
b10000 H
b10000 >
b10000 C
b10000 9
b10000 O
b10000 Y
b10000 Z
b0x0x1 ,
b0x0x1 S
b10000010000001111101011 A
b10000010000001111101011 W
b1011 2
b1011 T
b1100 4
b1100 N
b1100 P
b11111000010000010000001111101011 8
b11111000010000010000001111101011 _
b1000 !
b1000 B
b1000 M
b1000 ^
#540000
b101 "
b101 @
b101 Q
b101 ?
b101 J
1#
#600000
b101 '
0#
#603000
b11000 <
b11000 D
b11000 G
b11000 H
b11000 >
b11000 C
b11000 9
b11000 O
b11000 Y
b11000 Z
b0xx0x ,
b0xx0x S
b10000011000001111101100 A
b10000011000001111101100 W
b1100 2
b1100 T
b10000 4
b10000 N
b10000 P
b11111000010000011000001111101100 8
b11111000010000011000001111101100 _
b1100 !
b1100 B
b1100 M
b1100 ^
#660000
b111111111011111010100111110111101010110110111110111011111111 "
b111111111011111010100111110111101010110110111110111011111111 @
b111111111011111010100111110111101010110110111110111011111111 Q
b111111111011111010100111110111101010110110111110111011111111 ?
b111111111011111010100111110111101010110110111110111011111111 J
1#
#720000
b110 '
0#
#723000
b100000 <
b100000 D
b100000 G
b100000 H
b100000 >
b100000 C
b100000 9
b100000 O
b100000 Y
b100000 Z
b0xxxx ,
b0xxxx S
b10000100000001111101101 A
b10000100000001111101101 W
b1101 2
b1101 T
b10100 4
b10100 N
b10100 P
b11111000010000100000001111101101 8
b11111000010000100000001111101101 _
b10000 !
b10000 B
b10000 M
b10000 ^
#780000
b0 "
b0 @
b0 Q
b0 ?
b0 J
1#
#840000
b111 '
0#
#843000
x)
bx <
bx D
bx G
bx H
bx "
bx @
bx Q
bx >
bx C
b0 9
b0 O
b0 Y
b0 Z
bx +
bx X
bx ]
b1 =
b1 F
b1 \
06
07
0;
01
b1011 ,
b1011 S
b10000010110000000101001010 A
b10000010110000000101001010 W
b10101010000 3
b10101010000 [
b1010 -
b1010 R
b1010 2
b1010 T
b11000 4
b11000 N
b11000 P
b10101010000010110000000101001010 8
b10101010000010110000000101001010 _
b10100 !
b10100 B
b10100 M
b10100 ^
#845000
0)
b1111 "
b1111 @
b1111 Q
b101 >
b101 C
b1111 <
b1111 D
b1111 G
b1111 H
b101 /
b101 I
b101 U
b1010 0
b1010 E
b1010 V
#900000
1#
#960000
b1000 '
0#
#963000
1)
b0 "
b0 @
b0 Q
b0 <
b0 D
b0 G
b0 H
b0 =
b0 F
b0 \
b1010 ,
b1010 S
b10000010100000000110001100 A
b10000010100000000110001100 W
b10001010000 3
b10001010000 [
b1100 -
b1100 R
b1100 2
b1100 T
b11100 4
b11100 N
b11100 P
b10001010000010100000000110001100 8
b10001010000010100000000110001100 _
b11000 !
b11000 B
b11000 M
b11000 ^
#965000
0)
b1111 "
b1111 @
b1111 Q
b1111 >
b1111 C
b1111 <
b1111 D
b1111 G
b1111 H
b1111 /
b1111 I
b1111 U
b111111111011111010100111110111101010110110111110111011111111 0
b111111111011111010100111110111101010110110111110111011111111 E
b111111111011111010100111110111101010110110111110111011111111 V
#1020000
1#
#1080000
b1001 '
0#
#1083000
b0xxxx "
b0xxxx @
b0xxxx Q
b100 9
b100 O
b100 Y
b100 Z
b1 +
b1 X
b1 ]
b111 =
b111 F
b111 \
1:
0.
x7
11
b1100 ,
b1100 S
b10001100 A
b10001100 W
b10110100000 3
b10110100000 [
b100 -
b100 R
b100000 4
b100000 N
b100000 P
b10110100000000000000000010001100 8
b10110100000000000000000010001100 _
b11100 !
b11100 B
b11100 M
b11100 ^
#1085000
bx 0
bx E
bx V
#1140000
1#
#1200000
b1010 '
0#
#1203000
x)
bx <
bx D
bx G
bx H
bx "
bx @
bx Q
b0 9
b0 O
b0 Y
b0 Z
bx +
bx X
bx ]
b10 =
b10 F
b10 \
0:
1.
07
01
b1001 ,
b1001 S
b11000010010000000110101101 A
b11000010010000000110101101 W
b10001011000 3
b10001011000 [
b1101 -
b1101 R
b1101 2
b1101 T
b100100 4
b100100 N
b100100 P
b10001011000010010000000110101101 8
b10001011000010010000000110101101 _
b100000 !
b100000 B
b100000 M
b100000 ^
#1205000
0)
b1 "
b1 @
b1 Q
b1 >
b1 C
b1 <
b1 D
b1 G
b1 H
b1 /
b1 I
b1 U
b0 0
b0 E
b0 V
#1260000
1#
#1320000
b1011 '
0#
#1323000
b1111111111111111111111111111111111111111111111111111111111111111 "
b1111111111111111111111111111111111111111111111111111111111111111 @
b1111111111111111111111111111111111111111111111111111111111111111 Q
b1111111111111111111111111111111111111111111111111111111111111111 <
b1111111111111111111111111111111111111111111111111111111111111111 D
b1111111111111111111111111111111111111111111111111111111111111111 G
b1111111111111111111111111111111111111111111111111111111111111111 H
b110 =
b110 F
b110 \
b11000010010000000110001100 A
b11000010010000000110001100 W
b11001011000 3
b11001011000 [
b1100 -
b1100 R
b1100 2
b1100 T
b101000 4
b101000 N
b101000 P
b11001011000010010000000110001100 8
b11001011000010010000000110001100 _
b100100 !
b100100 B
b100100 M
b100100 ^
#1325000
b1110 "
b1110 @
b1110 Q
b1110 <
b1110 D
b1110 G
b1110 H
b1111 0
b1111 E
b1111 V
#1380000
1#
#1440000
b1100 '
0#
#1443000
b0xxx0 "
b0xxx0 @
b0xxx0 Q
b0xxxxxxxxxxxxxxxxxxxxxxxxxxxxxxxxxxxxxxxxxxxxxxxxxxxxxxxxxxxx01 >
b0xxxxxxxxxxxxxxxxxxxxxxxxxxxxxxxxxxxxxxxxxxxxxxxxxxxxxxxxxxxx01 C
b11111111111111111111111111111111111111111111111111111111111101 9
b11111111111111111111111111111111111111111111111111111111111101 O
b11111111111111111111111111111111111111111111111111111111111101 Y
b11111111111111111111111111111111111111111111111111111111111101 Z
b0 +
b0 X
b0 ]
bx =
bx F
bx \
1*
x:
0.
x7
x;
x1
b111x1 ,
b111x1 S
b11111111111111111111111101 A
b11111111111111111111111101 W
b10111111 3
b10111111 [
b11111 -
b11111 R
b11101 2
b11101 T
b11100 4
b11100 N
b11100 P
b10111111111111111111111111101 8
b10111111111111111111111111101 _
b101000 !
b101000 B
b101000 M
b101000 ^
#1445000
bx >
bx C
bx /
bx I
bx U
b0 0
b0 E
b0 V
#1500000
1#
#1560000
b1101 '
0#
#1563000
x)
bx "
bx @
bx Q
bx <
bx D
bx G
bx H
b100 9
b100 O
b100 Y
b100 Z
b1 +
b1 X
b1 ]
b111 =
b111 F
b111 \
0*
1:
0;
11
b1100 ,
b1100 S
b10001100 A
b10001100 W
b10110100000 3
b10110100000 [
b100 -
b100 R
b1100 2
b1100 T
b100000 4
b100000 N
b100000 P
b10110100000000000000000010001100 8
b10110100000000000000000010001100 _
b11100 !
b11100 B
b11100 M
b11100 ^
#1565000
0)
b0xxx0 "
b0xxx0 @
b0xxx0 Q
b1110 <
b1110 D
b1110 G
b1110 H
b1110 >
b1110 C
b1110 /
b1110 I
b1110 U
bx 0
bx E
bx V
#1620000
1#
#1680000
b1110 '
0#
#1683000
x)
bx <
bx D
bx G
bx H
bx "
bx @
bx Q
b0 9
b0 O
b0 Y
b0 Z
bx +
bx X
bx ]
b10 =
b10 F
b10 \
0:
1.
07
01
b1001 ,
b1001 S
b11000010010000000110101101 A
b11000010010000000110101101 W
b10001011000 3
b10001011000 [
b1101 -
b1101 R
b1101 2
b1101 T
b100100 4
b100100 N
b100100 P
b10001011000010010000000110101101 8
b10001011000010010000000110101101 _
b100000 !
b100000 B
b100000 M
b100000 ^
#1685000
0)
b10 "
b10 @
b10 Q
b1 >
b1 C
b10 <
b10 D
b10 G
b10 H
b1 /
b1 I
b1 U
b1 0
b1 E
b1 V
#1740000
1#
#1800000
b1111 '
0#
#1803000
1)
b0 "
b0 @
b0 Q
b0 <
b0 D
b0 G
b0 H
b110 =
b110 F
b110 \
b11000010010000000110001100 A
b11000010010000000110001100 W
b11001011000 3
b11001011000 [
b1100 -
b1100 R
b1100 2
b1100 T
b101000 4
b101000 N
b101000 P
b11001011000010010000000110001100 8
b11001011000010010000000110001100 _
b100100 !
b100100 B
b100100 M
b100100 ^
#1805000
0)
b1101 "
b1101 @
b1101 Q
b1101 <
b1101 D
b1101 G
b1101 H
b1110 0
b1110 E
b1110 V
#1860000
1#
#1920000
b10000 '
0#
#1923000
b0xx0x "
b0xx0x @
b0xx0x Q
b0xxxxxxxxxxxxxxxxxxxxxxxxxxxxxxxxxxxxxxxxxxxxxxxxxxxxxxxxxxxx01 >
b0xxxxxxxxxxxxxxxxxxxxxxxxxxxxxxxxxxxxxxxxxxxxxxxxxxxxxxxxxxxx01 C
b11111111111111111111111111111111111111111111111111111111111101 9
b11111111111111111111111111111111111111111111111111111111111101 O
b11111111111111111111111111111111111111111111111111111111111101 Y
b11111111111111111111111111111111111111111111111111111111111101 Z
b0 +
b0 X
b0 ]
bx =
bx F
bx \
1*
x:
0.
x7
x;
x1
b111x1 ,
b111x1 S
b11111111111111111111111101 A
b11111111111111111111111101 W
b10111111 3
b10111111 [
b11111 -
b11111 R
b11101 2
b11101 T
b11100 4
b11100 N
b11100 P
b10111111111111111111111111101 8
b10111111111111111111111111101 _
b101000 !
b101000 B
b101000 M
b101000 ^
#1925000
bx >
bx C
bx /
bx I
bx U
b0 0
b0 E
b0 V
#1980000
1#
#2040000
b10001 '
0#
#2043000
x)
bx "
bx @
bx Q
bx <
bx D
bx G
bx H
b100 9
b100 O
b100 Y
b100 Z
b1 +
b1 X
b1 ]
b111 =
b111 F
b111 \
0*
1:
0;
11
b1100 ,
b1100 S
b10001100 A
b10001100 W
b10110100000 3
b10110100000 [
b100 -
b100 R
b1100 2
b1100 T
b100000 4
b100000 N
b100000 P
b10110100000000000000000010001100 8
b10110100000000000000000010001100 _
b11100 !
b11100 B
b11100 M
b11100 ^
#2045000
0)
b0xx0x "
b0xx0x @
b0xx0x Q
b1101 <
b1101 D
b1101 G
b1101 H
b1101 >
b1101 C
b1101 /
b1101 I
b1101 U
bx 0
bx E
bx V
#2100000
1#
#2160000
b10010 '
0#
#2163000
x)
bx <
bx D
bx G
bx H
bx "
bx @
bx Q
b0 9
b0 O
b0 Y
b0 Z
bx +
bx X
bx ]
b10 =
b10 F
b10 \
0:
1.
07
01
b1001 ,
b1001 S
b11000010010000000110101101 A
b11000010010000000110101101 W
b10001011000 3
b10001011000 [
b1101 -
b1101 R
b1101 2
b1101 T
b100100 4
b100100 N
b100100 P
b10001011000010010000000110101101 8
b10001011000010010000000110101101 _
b100000 !
b100000 B
b100000 M
b100000 ^
#2165000
0)
b11 "
b11 @
b11 Q
b1 >
b1 C
b11 <
b11 D
b11 G
b11 H
b1 /
b1 I
b1 U
b10 0
b10 E
b10 V
#2220000
1#
#2280000
b10011 '
0#
#2283000
b1 "
b1 @
b1 Q
b1 <
b1 D
b1 G
b1 H
b110 =
b110 F
b110 \
b11000010010000000110001100 A
b11000010010000000110001100 W
b11001011000 3
b11001011000 [
b1100 -
b1100 R
b1100 2
b1100 T
b101000 4
b101000 N
b101000 P
b11001011000010010000000110001100 8
b11001011000010010000000110001100 _
b100100 !
b100100 B
b100100 M
b100100 ^
#2285000
b1100 "
b1100 @
b1100 Q
b1100 <
b1100 D
b1100 G
b1100 H
b1101 0
b1101 E
b1101 V
#2340000
1#
#2400000
b10100 '
0#
#2403000
b0xx00 "
b0xx00 @
b0xx00 Q
b0xxxxxxxxxxxxxxxxxxxxxxxxxxxxxxxxxxxxxxxxxxxxxxxxxxxxxxxxxxxx01 >
b0xxxxxxxxxxxxxxxxxxxxxxxxxxxxxxxxxxxxxxxxxxxxxxxxxxxxxxxxxxxx01 C
b11111111111111111111111111111111111111111111111111111111111101 9
b11111111111111111111111111111111111111111111111111111111111101 O
b11111111111111111111111111111111111111111111111111111111111101 Y
b11111111111111111111111111111111111111111111111111111111111101 Z
b0 +
b0 X
b0 ]
bx =
bx F
bx \
1*
x:
0.
x7
x;
x1
b111x1 ,
b111x1 S
b11111111111111111111111101 A
b11111111111111111111111101 W
b10111111 3
b10111111 [
b11111 -
b11111 R
b11101 2
b11101 T
b11100 4
b11100 N
b11100 P
b10111111111111111111111111101 8
b10111111111111111111111111101 _
b101000 !
b101000 B
b101000 M
b101000 ^
#2405000
bx >
bx C
bx /
bx I
bx U
b0 0
b0 E
b0 V
#2460000
1#
#2520000
b10101 '
0#
#2523000
x)
bx "
bx @
bx Q
bx <
bx D
bx G
bx H
b100 9
b100 O
b100 Y
b100 Z
b1 +
b1 X
b1 ]
b111 =
b111 F
b111 \
0*
1:
0;
11
b1100 ,
b1100 S
b10001100 A
b10001100 W
b10110100000 3
b10110100000 [
b100 -
b100 R
b1100 2
b1100 T
b100000 4
b100000 N
b100000 P
b10110100000000000000000010001100 8
b10110100000000000000000010001100 _
b11100 !
b11100 B
b11100 M
b11100 ^
#2525000
0)
b0xx00 "
b0xx00 @
b0xx00 Q
b1100 <
b1100 D
b1100 G
b1100 H
b1100 >
b1100 C
b1100 /
b1100 I
b1100 U
bx 0
bx E
bx V
#2580000
1#
#2640000
b10110 '
0#
#2643000
x)
bx <
bx D
bx G
bx H
bx "
bx @
bx Q
b0 9
b0 O
b0 Y
b0 Z
bx +
bx X
bx ]
b10 =
b10 F
b10 \
0:
1.
07
01
b1001 ,
b1001 S
b11000010010000000110101101 A
b11000010010000000110101101 W
b10001011000 3
b10001011000 [
b1101 -
b1101 R
b1101 2
b1101 T
b100100 4
b100100 N
b100100 P
b10001011000010010000000110101101 8
b10001011000010010000000110101101 _
b100000 !
b100000 B
b100000 M
b100000 ^
#2645000
0)
b100 "
b100 @
b100 Q
b1 >
b1 C
b100 <
b100 D
b100 G
b100 H
b1 /
b1 I
b1 U
b11 0
b11 E
b11 V
#2700000
1#
#2760000
b10111 '
0#
#2763000
b10 "
b10 @
b10 Q
b10 <
b10 D
b10 G
b10 H
b110 =
b110 F
b110 \
b11000010010000000110001100 A
b11000010010000000110001100 W
b11001011000 3
b11001011000 [
b1100 -
b1100 R
b1100 2
b1100 T
b101000 4
b101000 N
b101000 P
b11001011000010010000000110001100 8
b11001011000010010000000110001100 _
b100100 !
b100100 B
b100100 M
b100100 ^
#2765000
b1011 "
b1011 @
b1011 Q
b1011 <
b1011 D
b1011 G
b1011 H
b1100 0
b1100 E
b1100 V
#2820000
1#
#2880000
b11000 '
0#
#2883000
b0x0xx "
b0x0xx @
b0x0xx Q
b0xxxxxxxxxxxxxxxxxxxxxxxxxxxxxxxxxxxxxxxxxxxxxxxxxxxxxxxxxxxx01 >
b0xxxxxxxxxxxxxxxxxxxxxxxxxxxxxxxxxxxxxxxxxxxxxxxxxxxxxxxxxxxx01 C
b11111111111111111111111111111111111111111111111111111111111101 9
b11111111111111111111111111111111111111111111111111111111111101 O
b11111111111111111111111111111111111111111111111111111111111101 Y
b11111111111111111111111111111111111111111111111111111111111101 Z
b0 +
b0 X
b0 ]
bx =
bx F
bx \
1*
x:
0.
x7
x;
x1
b111x1 ,
b111x1 S
b11111111111111111111111101 A
b11111111111111111111111101 W
b10111111 3
b10111111 [
b11111 -
b11111 R
b11101 2
b11101 T
b11100 4
b11100 N
b11100 P
b10111111111111111111111111101 8
b10111111111111111111111111101 _
b101000 !
b101000 B
b101000 M
b101000 ^
#2885000
bx >
bx C
bx /
bx I
bx U
b0 0
b0 E
b0 V
#2940000
1#
#3000000
b11001 '
0#
#3003000
x)
bx "
bx @
bx Q
bx <
bx D
bx G
bx H
b100 9
b100 O
b100 Y
b100 Z
b1 +
b1 X
b1 ]
b111 =
b111 F
b111 \
0*
1:
0;
11
b1100 ,
b1100 S
b10001100 A
b10001100 W
b10110100000 3
b10110100000 [
b100 -
b100 R
b1100 2
b1100 T
b100000 4
b100000 N
b100000 P
b10110100000000000000000010001100 8
b10110100000000000000000010001100 _
b11100 !
b11100 B
b11100 M
b11100 ^
#3005000
0)
b0x0xx "
b0x0xx @
b0x0xx Q
b1011 <
b1011 D
b1011 G
b1011 H
b1011 >
b1011 C
b1011 /
b1011 I
b1011 U
bx 0
bx E
bx V
#3060000
1#
#3120000
b11010 '
0#
#3123000
x)
bx <
bx D
bx G
bx H
bx "
bx @
bx Q
b0 9
b0 O
b0 Y
b0 Z
bx +
bx X
bx ]
b10 =
b10 F
b10 \
0:
1.
07
01
b1001 ,
b1001 S
b11000010010000000110101101 A
b11000010010000000110101101 W
b10001011000 3
b10001011000 [
b1101 -
b1101 R
b1101 2
b1101 T
b100100 4
b100100 N
b100100 P
b10001011000010010000000110101101 8
b10001011000010010000000110101101 _
b100000 !
b100000 B
b100000 M
b100000 ^
#3125000
0)
b101 "
b101 @
b101 Q
b1 >
b1 C
b101 <
b101 D
b101 G
b101 H
b1 /
b1 I
b1 U
b100 0
b100 E
b100 V
#3180000
1#
#3240000
b11011 '
0#
#3243000
b11 "
b11 @
b11 Q
b11 <
b11 D
b11 G
b11 H
b110 =
b110 F
b110 \
b11000010010000000110001100 A
b11000010010000000110001100 W
b11001011000 3
b11001011000 [
b1100 -
b1100 R
b1100 2
b1100 T
b101000 4
b101000 N
b101000 P
b11001011000010010000000110001100 8
b11001011000010010000000110001100 _
b100100 !
b100100 B
b100100 M
b100100 ^
#3245000
b1010 "
b1010 @
b1010 Q
b1010 <
b1010 D
b1010 G
b1010 H
b1011 0
b1011 E
b1011 V
#3300000
1#
#3360000
b11100 '
0#
#3363000
b0x0x0 "
b0x0x0 @
b0x0x0 Q
b0xxxxxxxxxxxxxxxxxxxxxxxxxxxxxxxxxxxxxxxxxxxxxxxxxxxxxxxxxxxx01 >
b0xxxxxxxxxxxxxxxxxxxxxxxxxxxxxxxxxxxxxxxxxxxxxxxxxxxxxxxxxxxx01 C
b11111111111111111111111111111111111111111111111111111111111101 9
b11111111111111111111111111111111111111111111111111111111111101 O
b11111111111111111111111111111111111111111111111111111111111101 Y
b11111111111111111111111111111111111111111111111111111111111101 Z
b0 +
b0 X
b0 ]
bx =
bx F
bx \
1*
x:
0.
x7
x;
x1
b111x1 ,
b111x1 S
b11111111111111111111111101 A
b11111111111111111111111101 W
b10111111 3
b10111111 [
b11111 -
b11111 R
b11101 2
b11101 T
b11100 4
b11100 N
b11100 P
b10111111111111111111111111101 8
b10111111111111111111111111101 _
b101000 !
b101000 B
b101000 M
b101000 ^
#3365000
bx >
bx C
bx /
bx I
bx U
b0 0
b0 E
b0 V
#3420000
1#
#3480000
b11101 '
0#
#3483000
x)
bx "
bx @
bx Q
bx <
bx D
bx G
bx H
b100 9
b100 O
b100 Y
b100 Z
b1 +
b1 X
b1 ]
b111 =
b111 F
b111 \
0*
1:
0;
11
b1100 ,
b1100 S
b10001100 A
b10001100 W
b10110100000 3
b10110100000 [
b100 -
b100 R
b1100 2
b1100 T
b100000 4
b100000 N
b100000 P
b10110100000000000000000010001100 8
b10110100000000000000000010001100 _
b11100 !
b11100 B
b11100 M
b11100 ^
#3485000
0)
b0x0x0 "
b0x0x0 @
b0x0x0 Q
b1010 <
b1010 D
b1010 G
b1010 H
b1010 >
b1010 C
b1010 /
b1010 I
b1010 U
bx 0
bx E
bx V
#3540000
1#
#3600000
b11110 '
0#
#3603000
x)
bx <
bx D
bx G
bx H
bx "
bx @
bx Q
b0 9
b0 O
b0 Y
b0 Z
bx +
bx X
bx ]
b10 =
b10 F
b10 \
0:
1.
07
01
b1001 ,
b1001 S
b11000010010000000110101101 A
b11000010010000000110101101 W
b10001011000 3
b10001011000 [
b1101 -
b1101 R
b1101 2
b1101 T
b100100 4
b100100 N
b100100 P
b10001011000010010000000110101101 8
b10001011000010010000000110101101 _
b100000 !
b100000 B
b100000 M
b100000 ^
#3605000
0)
b110 "
b110 @
b110 Q
b1 >
b1 C
b110 <
b110 D
b110 G
b110 H
b1 /
b1 I
b1 U
b101 0
b101 E
b101 V
#3660000
1#
#3720000
b11111 '
0#
#3723000
b100 "
b100 @
b100 Q
b100 <
b100 D
b100 G
b100 H
b110 =
b110 F
b110 \
b11000010010000000110001100 A
b11000010010000000110001100 W
b11001011000 3
b11001011000 [
b1100 -
b1100 R
b1100 2
b1100 T
b101000 4
b101000 N
b101000 P
b11001011000010010000000110001100 8
b11001011000010010000000110001100 _
b100100 !
b100100 B
b100100 M
b100100 ^
#3725000
b1001 "
b1001 @
b1001 Q
b1001 <
b1001 D
b1001 G
b1001 H
b1010 0
b1010 E
b1010 V
#3780000
1#
#3840000
b100000 '
0#
#3843000
b0x00x "
b0x00x @
b0x00x Q
b0xxxxxxxxxxxxxxxxxxxxxxxxxxxxxxxxxxxxxxxxxxxxxxxxxxxxxxxxxxxx01 >
b0xxxxxxxxxxxxxxxxxxxxxxxxxxxxxxxxxxxxxxxxxxxxxxxxxxxxxxxxxxxx01 C
b11111111111111111111111111111111111111111111111111111111111101 9
b11111111111111111111111111111111111111111111111111111111111101 O
b11111111111111111111111111111111111111111111111111111111111101 Y
b11111111111111111111111111111111111111111111111111111111111101 Z
b0 +
b0 X
b0 ]
bx =
bx F
bx \
1*
x:
0.
x7
x;
x1
b111x1 ,
b111x1 S
b11111111111111111111111101 A
b11111111111111111111111101 W
b10111111 3
b10111111 [
b11111 -
b11111 R
b11101 2
b11101 T
b11100 4
b11100 N
b11100 P
b10111111111111111111111111101 8
b10111111111111111111111111101 _
b101000 !
b101000 B
b101000 M
b101000 ^
#3845000
bx >
bx C
bx /
bx I
bx U
b0 0
b0 E
b0 V
#3900000
1#
#3960000
b100001 '
0#
#3963000
x)
bx "
bx @
bx Q
bx <
bx D
bx G
bx H
b100 9
b100 O
b100 Y
b100 Z
b1 +
b1 X
b1 ]
b111 =
b111 F
b111 \
0*
1:
0;
11
b1100 ,
b1100 S
b10001100 A
b10001100 W
b10110100000 3
b10110100000 [
b100 -
b100 R
b1100 2
b1100 T
b100000 4
b100000 N
b100000 P
b10110100000000000000000010001100 8
b10110100000000000000000010001100 _
b11100 !
b11100 B
b11100 M
b11100 ^
#3965000
0)
b0x00x "
b0x00x @
b0x00x Q
b1001 <
b1001 D
b1001 G
b1001 H
b1001 >
b1001 C
b1001 /
b1001 I
b1001 U
bx 0
bx E
bx V
#4020000
1#
#4080000
b100010 '
0#
#4083000
x)
bx <
bx D
bx G
bx H
bx "
bx @
bx Q
b0 9
b0 O
b0 Y
b0 Z
bx +
bx X
bx ]
b10 =
b10 F
b10 \
0:
1.
07
01
b1001 ,
b1001 S
b11000010010000000110101101 A
b11000010010000000110101101 W
b10001011000 3
b10001011000 [
b1101 -
b1101 R
b1101 2
b1101 T
b100100 4
b100100 N
b100100 P
b10001011000010010000000110101101 8
b10001011000010010000000110101101 _
b100000 !
b100000 B
b100000 M
b100000 ^
#4085000
0)
b111 "
b111 @
b111 Q
b1 >
b1 C
b111 <
b111 D
b111 G
b111 H
b1 /
b1 I
b1 U
b110 0
b110 E
b110 V
#4140000
1#
#4200000
b100011 '
0#
#4203000
b101 "
b101 @
b101 Q
b101 <
b101 D
b101 G
b101 H
b110 =
b110 F
b110 \
b11000010010000000110001100 A
b11000010010000000110001100 W
b11001011000 3
b11001011000 [
b1100 -
b1100 R
b1100 2
b1100 T
b101000 4
b101000 N
b101000 P
b11001011000010010000000110001100 8
b11001011000010010000000110001100 _
b100100 !
b100100 B
b100100 M
b100100 ^
#4205000
b1000 "
b1000 @
b1000 Q
b1000 <
b1000 D
b1000 G
b1000 H
b1001 0
b1001 E
b1001 V
#4260000
1#
#4320000
b100100 '
0#
